7 A Identidade Fundamental do Carregamento – Sistema de Gestão e Excelência Operacional na Mineração
…
load_events_mine_a %>%
  filter(load_id == "LOAD-0001") %>%
  group_by(load_fleet, load_id, haul_id, origin, material) %>%
  summarise(
    first_time   = min(first_time),
    exit_time    = max(exit_time),
    payload      = sum(payload, na.rm = TRUE),
    # Identidade Fundamental: Soma das durações das fases
    duration_min = sum(duration_min),
    # Contagem de passadas (apenas eventos de 'loading' efetivo)
    n_passadas   = sum(event_type == "loading"),
    .groups      = "drop"
  )

# A tibble: 141 × 10
   load_fleet                load_id haul_id origin material first_time         
   <chr>                     <chr>   <chr>   <chr>  <chr>    <dttm>             
 1 Hydraulic Excavator - La… LOAD-0… HAUL-0… Bench  Ore      2024-08-01 02:28:23
 2 Hydraulic Excavator - La… LOAD-0… HAUL-0… Bench  Waste    2024-08-27 10:58:46
 3 Hydraulic Excavator - La… LOAD-0… HAUL-0… Rehan… Waste    2024-08-29 08:48:02
 4 Hydraulic Excavator - La… LOAD-0… HAUL-0… Bench  Ore      2024-08-01 00:58:56
 5 Hydraulic Excavator - La… LOAD-0… HAUL-0… Bench  Waste    2024-07-05 14:52:17
 6 Hydraulic Excavator - La… LOAD-0… HAUL-0… Rehan… Waste    2024-07-29 08:00:39
 7 Hydraulic Excavator - La… LOAD-0… HAUL-0… Bench  Ore      2024-08-06 04:11:24
 8 Hydraulic Excavator - La… LOAD-0… HAUL-0… Bench  Waste    2024-07-01 03:42:22
 9 Hydraulic Excavator - La… LOAD-0… HAUL-0… Rehan… Waste    2024-07-29 05:37:13
10 Hydraulic Excavator - La… LOAD-0… HAUL-0… Stock… Ore      2024-08-24 17:38:34
# ℹ 131 more rows
# ℹ 4 more variables: exit_time <dttm>, payload <dbl>, duration_min <dbl>,
#   n_passadas <int>
…
