1 Excelência Operacional e Metrologia de Performance – Sistema de Gestão e Excelência Operacional na Mineração
…
Como a medição é feita baseado em durações de tempo, os apontamentos são realizados sempre que um determinado equipamento alterar o seu status de operação. Para análise de categoria de horas, utiliza-se o gap_time que é a duração (em horas) do início e fim do evento.

Código

# Cálculo de durações (gap_time) utilizando intervalos (%--%)
df_exm1 <- drill_events_mine_d %>%
  select(drill_id, category, first_time, exit_time) %>%
  mutate(
    gap_time = (first_time %--% exit_time) / dhours(1), # Calcula a diferença dos tempos em horas decimais
    day = as_date(first_time)                           # Normalizando data para agrupamento por período (p = 1 dia)
  ) %>%
  filter(drill_id == "DRILL_100", day >= "2023-01-01") %>%
  print(n = 10) # Observe que as categorias se alternam ao longo do dia

# A tibble: 12,896 × 6
   drill_id category first_time          exit_time           gap_time day       
   <chr>    <chr>    <dttm>              <dttm>                 <dbl> <date>    
 1 DRILL_1… ODH      2023-01-01 00:00:53 2023-01-01 00:16:15   0.256  2023-01-01
 2 DRILL_1… EFH      2023-01-01 00:16:16 2023-01-01 00:58:52   0.71   2023-01-01
 3 DRILL_1… IIH      2023-01-01 00:58:52 2023-01-01 00:59:59   0.0189 2023-01-01
 4 DRILL_1… IIH      2023-01-01 01:00:00 2023-01-01 01:45:34   0.760  2023-01-01
 5 DRILL_1… IIH      2023-01-01 01:45:35 2023-01-01 02:00:19   0.246  2023-01-01
 6 DRILL_1… ODH      2023-01-01 02:00:20 2023-01-01 02:04:28   0.0692 2023-01-01
 7 DRILL_1… EFH      2023-01-01 02:04:29 2023-01-01 02:11:20   0.114  2023-01-01
 8 DRILL_1… ODH      2023-01-01 02:11:20 2023-01-01 02:20:43   0.156  2023-01-01
 9 DRILL_1… EFH      2023-01-01 02:20:44 2023-01-01 02:24:06   0.0564 2023-01-01
10 DRILL_1… ODH      2023-01-01 02:24:07 2023-01-01 02:29:49   0.0953 2023-01-01
# ℹ 12,886 more rows
…
